[
  {
    "id": 1,
    "title_translation_id": 1,
    "description": "colors"
  },
  {
    "id": 2,
    "title_translation_id": 3,
    "description": "animals"
  },
  {
    "id": 3,
    "title_translation_id": 4,
    "description": "food"
  },
  {
    "id": 4,
    "title_translation_id": 5,
    "description": "sports"
  },
  {
    "id": 5,
    "title_translation_id": 6,
    "description": "other"
  }
]